999
dxfrw 0.6.3
  0
SECTION
  2
HEADER
  9
$ACADVER
  1
AC1021
  9
$DWGCODEPAGE
  3
ANSI_1252
  9
$INSBASE
 10
0
 20
0
 30
0
  9
$EXTMIN
 10
-10
 20
-21
 30
0
  9
$EXTMAX
 10
230
 20
11.00000000015197
 30
0
  9
$LIMMIN
 10
0
 20
0
  9
$LIMMAX
 10
420
 20
297
  9
$ORTHOMODE
 70
    0
  9
$REGENMODE
 70
    1
  9
$FILLMODE
 70
    1
  9
$QTEXTMODE
 70
    0
  9
$MIRRTEXT
 70
    0
  9
$LTSCALE
 40
1
  9
$ATTMODE
 70
    0
  9
$TEXTSIZE
 40
2.5
  9
$TRACEWID
 40
15.68
  9
$TEXTSTYLE
  7
STANDARD
  9
$CLAYER
  8
0
  9
$CELTYPE
  6
BYLAYER
  9
$CECOLOR
 62
  256
  9
$CELTSCALE
 40
1
  9
$DISPSILH
 70
    0
  9
$DIMSCALE
 40
2.5
  9
$DIMASZ
 40
2.5
  9
$DIMEXO
 40
0.625
  9
$DIMDLI
 40
3.75
  9
$DIMRND
 40
0
  9
$DIMDLE
 40
0
  9
$DIMEXE
 40
1.25
  9
$DIMTP
 40
0
  9
$DIMTM
 40
0
  9
$DIMTXT
 40
2.5
  9
$DIMCEN
 40
2.5
  9
$DIMTSZ
 40
0
  9
$DIMTOL
 70
    0
  9
$DIMLIM
 70
    0
  9
$DIMTIH
 70
    0
  9
$DIMTOH
 70
    0
  9
$DIMSE1
 70
    0
  9
$DIMSE2
 70
    0
  9
$DIMTAD
 70
    1
  9
$DIMZIN
 70
    8
  9
$DIMBLK
  1

  9
$DIMASO
 70
    1
  9
$DIMSHO
 70
    1
  9
$DIMPOST
  1

  9
$DIMAPOST
  1

  9
$DIMALT
 70
    0
  9
$DIMALTD
 70
    3
  9
$DIMALTF
 40
0.03937
  9
$DIMLFAC
 40
1
  9
$DIMTOFL
 70
    1
  9
$DIMTVP
 40
0
  9
$DIMTIX
 70
    0
  9
$DIMSOXD
 70
    0
  9
$DIMSAH
 70
    0
  9
$DIMBLK1
  1

  9
$DIMBLK2
  1

  9
$DIMSTYLE
  2
STANDARD
  9
$DIMCLRD
 70
    0
  9
$DIMCLRE
 70
    0
  9
$DIMCLRT
 70
    0
  9
$DIMTFAC
 40
1
  9
$DIMGAP
 40
0.625
  9
$DIMJUST
 70
    0
  9
$DIMSD1
 70
    0
  9
$DIMSD2
 70
    0
  9
$DIMTOLJ
 70
    0
  9
$DIMTZIN
 70
    8
  9
$DIMALTZ
 70
    0
  9
$DIMALTTZ
 70
    0
  9
$DIMUPT
 70
    0
  9
$DIMDEC
 70
    2
  9
$DIMTDEC
 70
    2
  9
$DIMALTU
 70
    2
  9
$DIMALTTD
 70
    3
  9
$DIMTXSTY
  7
STANDARD
  9
$DIMAUNIT
 70
    0
  9
$DIMADEC
 70
    0
  9
$DIMALTRND
 40
0
  9
$DIMAZIN
 70
    0
  9
$DIMDSEP
 70
   44
  9
$DIMATFIT
 70
    3
  9
$DIMFRAC
 70
    0
  9
$DIMLDRBLK
  1
STANDARD
  9
$DIMLUNIT
 70
    2
  9
$DIMLWD
 70
   -2
  9
$DIMLWE
 70
   -2
  9
$DIMTMOVE
 70
    0
  9
$DIMFXL
 40
1
  9
$DIMFXLON
 70
    0
  9
$DIMJOGANG
 40
0.7854
  9
$DIMTFILL
 70
    0
  9
$DIMTFILLCLR
 70
    0
  9
$DIMARCSYM
 70
    0
  9
$DIMLTYPE
  6

  9
$DIMLTEX1
  6

  9
$DIMLTEX2
  6

  9
$LUNITS
 70
    2
  9
$LUPREC
 70
    4
  9
$SKETCHINC
 40
1
  9
$FILLETRAD
 40
0
  9
$AUNITS
 70
    0
  9
$AUPREC
 70
    2
  9
$MENU
  1
.
  9
$ELEVATION
 40
0
  9
$PELEVATION
 40
0
  9
$THICKNESS
 40
0
  9
$LIMCHECK
 70
    0
  9
$CHAMFERA
 40
0
  9
$CHAMFERB
 40
0
  9
$CHAMFERC
 40
0
  9
$CHAMFERD
 40
0
  9
$SKPOLY
 70
    0
  9
$USRTIMER
 70
    1
  9
$ANGBASE
 50
0
  9
$ANGDIR
 70
    0
  9
$PDMODE
 70
   34
  9
$PDSIZE
 40
0
  9
$PLINEWID
 40
0
  9
$SPLFRAME
 70
    0
  9
$SPLINETYPE
 70
    2
  9
$SPLINESEGS
 70
    8
  9
$HANDSEED
  5
20000
  9
$SURFTAB1
 70
    6
  9
$SURFTAB2
 70
    6
  9
$SURFTYPE
 70
    6
  9
$SURFU
 70
    6
  9
$SURFV
 70
    6
  9
$UCSBASE
  2

  9
$UCSNAME
  2

  9
$UCSORG
 10
0
 20
0
 30
0
  9
$UCSXDIR
 10
1
 20
0
 30
0
  9
$UCSYDIR
 10
0
 20
1
 30
0
  9
$UCSORTHOREF
  2

  9
$UCSORTHOVIEW
 70
    0
  9
$UCSORGTOP
 10
0
 20
0
 30
0
  9
$UCSORGBOTTOM
 10
0
 20
0
 30
0
  9
$UCSORGLEFT
 10
0
 20
0
 30
0
  9
$UCSORGRIGHT
 10
0
 20
0
 30
0
  9
$UCSORGFRONT
 10
0
 20
0
 30
0
  9
$UCSORGBACK
 10
0
 20
0
 30
0
  9
$PUCSBASE
  2

  9
$PUCSNAME
  2

  9
$PUCSORG
 10
0
 20
0
 30
0
  9
$PUCSXDIR
 10
1
 20
0
 30
0
  9
$PUCSYDIR
 10
0
 20
1
 30
0
  9
$PUCSORTHOREF
  2

  9
$PUCSORTHOVIEW
 70
    0
  9
$PUCSORGTOP
 10
0
 20
0
 30
0
  9
$PUCSORGBOTTOM
 10
0
 20
0
 30
0
  9
$PUCSORGLEFT
 10
0
 20
0
 30
0
  9
$PUCSORGRIGHT
 10
0
 20
0
 30
0
  9
$PUCSORGFRONT
 10
0
 20
0
 30
0
  9
$PUCSORGBACK
 10
0
 20
0
 30
0
  9
$USERI1
 70
    0
  9
$USERI2
 70
    0
  9
$USERI3
 70
    0
  9
$USERI4
 70
    0
  9
$USERI5
 70
    0
  9
$USERR1
 40
0
  9
$USERR2
 40
0
  9
$USERR3
 40
0
  9
$USERR4
 40
0
  9
$USERR5
 40
0
  9
$WORLDVIEW
 70
    1
  9
$SHADEDGE
 70
    3
  9
$SHADEDIF
 70
   70
  9
$TILEMODE
 70
    1
  9
$MAXACTVP
 70
   64
  9
$PINSBASE
 10
0
 20
0
 30
0
  9
$PLIMCHECK
 70
    0
  9
$PEXTMIN
 10
0
 20
0
 30
0
  9
$PEXTMAX
 10
0
 20
0
 30
0
  9
$SNAPSTYLE
 70
    0
  9
$PLIMMIN
 10
0
 20
0
  9
$PLIMMAX
 10
297
 20
420
  9
$UNITMODE
 70
    0
  9
$VISRETAIN
 70
    1
  9
$PLINEGEN
 70
    0
  9
$PSLTSCALE
 70
    1
  9
$TREEDEPTH
 70
 3020
  9
$CMLSTYLE
  2
Standard
  9
$CMLJUST
 70
    0
  9
$CMLSCALE
 40
20
  9
$PROXYGRAPHICS
 70
    1
  9
$MEASUREMENT
 70
    1
  9
$CELWEIGHT
370
   -1
  9
$ENDCAPS
280
    0
  9
$JOINSTYLE
280
    0
  9
$LWDISPLAY
290
    0
  9
$INSUNITS
 70
    4
  9
$HYPERLINKBASE
  1

  9
$STYLESHEET
  1

  9
$XEDIT
290
    1
  9
$CEPSNTYPE
380
    0
  9
$PSTYLEMODE
290
    1
  9
$EXTNAMES
290
    1
  9
$PSVPSCALE
 40
1
  9
$OLESTARTUP
290
    0
  9
$SORTENTS
280
  127
  9
$INDEXCTL
280
    0
  9
$HIDETEXT
280
    1
  9
$XCLIPFRAME
290
    0
  9
$HALOGAP
280
    0
  9
$OBSCOLOR
 70
  257
  9
$OBSLTYPE
280
    0
  9
$INTERSECTIONDISPLAY
280
    0
  9
$INTERSECTIONCOLOR
 70
  257
  9
$DIMASSOC
280
    1
  9
$PROJECTNAME
  1

  9
$CAMERADISPLAY
290
    0
  9
$LENSLENGTH
 40
50
  9
$CAMERAHEIGHT
 40
0
  9
$STEPSPERSEC
 40
2
  9
$STEPSIZE
 40
50
  9
$3DDWFPREC
 40
2
  9
$PSOLWIDTH
 40
5
  9
$PSOLHEIGHT
 40
80
  9
$LOFTANG1
 40
1.570796326794897
  9
$LOFTANG2
 40
1.570796326794897
  9
$LOFTMAG1
 40
0
  9
$LOFTMAG2
 40
0
  9
$LOFTPARAM
 70
    7
  9
$LOFTNORMALS
280
    1
  9
$LATITUDE
 40
1
  9
$LONGITUDE
 40
1
  9
$NORTHDIRECTION
 40
0
  9
$TIMEZONE
 70
-8000
  9
$LIGHTGLYPHDISPLAY
280
    1
  9
$TILEMODELIGHTSYNCH
280
    1
  9
$SOLIDHIST
280
    1
  9
$SHOWHIST
280
    1
  9
$DWFFRAME
280
    2
  9
$DGNFRAME
280
    0
  9
$REALWORLDSCALE
290
    1
  9
$INTERFERECOLOR
 62
    1
  9
$CSHADOW
280
    0
  9
$SHADOWPLANELOCATION
 40
0
  0
ENDSEC
  0
SECTION
  2
CLASSES
  0
ENDSEC
  0
SECTION
  2
TABLES
  0
TABLE
  2
VPORT
  5
8
330
0
100
AcDbSymbolTable
 70
    1
  0
VPORT
  5
31
330
2
100
AcDbSymbolTableRecord
100
AcDbViewportTableRecord
  2
*ACTIVE
 70
    0
 10
0
 20
0
 11
1
 21
1
 12
75.88795685311962
 22
21.7666183297589
 13
0
 23
0
 14
10
 24
10
 15
10
 25
10
 16
0
 26
0
 36
1
 17
0
 27
0
 37
0
 40
76.99006411032261
 41
1.38241308793456
 42
50
 43
0
 44
0
 50
0
 51
0
 71
    0
 72
  100
 73
    1
 74
    3
 75
    0
 76
    1
 77
    0
 78
    0
281
    0
 65
    1
110
0
120
0
130
0
111
1
121
0
131
0
112
0
122
1
132
0
 79
    0
146
0
348
10020
 60
    7
 61
    5
292
1
282
    1
141
0
142
0
 63
  250
421
3358443
  0
ENDTAB
  0
TABLE
  2
LTYPE
  5
5
330
0
100
AcDbSymbolTable
 70
    4
  0
LTYPE
  5
14
330
5
100
AcDbSymbolTableRecord
100
AcDbLinetypeTableRecord
  2
ByBlock
 70
    0
  3

 72
   65
 73
    0
 40
0
  0
LTYPE
  5
15
330
5
100
AcDbSymbolTableRecord
100
AcDbLinetypeTableRecord
  2
ByLayer
 70
    0
  3

 72
   65
 73
    0
 40
0
  0
LTYPE
  5
16
330
5
100
AcDbSymbolTableRecord
100
AcDbLinetypeTableRecord
  2
Continuous
 70
    0
  3
Solid line
 72
   65
 73
    0
 40
0
  0
LTYPE
  5
32
330
5
100
AcDbSymbolTableRecord
100
AcDbLinetypeTableRecord
  2
DOT
 70
    0
  3
Dot . . . . . . . . . . . . . . . . . . . . . .
 72
   65
 73
    2
 40
6.35
 49
0
 74
    0
 49
-6.35
 74
    0
  0
LTYPE
  5
33
330
5
100
AcDbSymbolTableRecord
100
AcDbLinetypeTableRecord
  2
DOTTINY
 70
    0
  3
Dot (.15x) .....................................
 72
   65
 73
    2
 40
0.9525
 49
0
 74
    0
 49
-0.9525
 74
    0
  0
LTYPE
  5
34
330
5
100
AcDbSymbolTableRecord
100
AcDbLinetypeTableRecord
  2
DOT2
 70
    0
  3
Dot (.5x) .....................................
 72
   65
 73
    2
 40
3.175
 49
0
 74
    0
 49
-3.175
 74
    0
  0
LTYPE
  5
35
330
5
100
AcDbSymbolTableRecord
100
AcDbLinetypeTableRecord
  2
DOTX2
 70
    0
  3
Dot (2x) .  .  .  .  .  .  .  .  .  .  .  .  .
 72
   65
 73
    2
 40
12.7
 49
0
 74
    0
 49
-12.7
 74
    0
  0
LTYPE
  5
36
330
5
100
AcDbSymbolTableRecord
100
AcDbLinetypeTableRecord
  2
DASHED
 70
    0
  3
Dashed _ _ _ _ _ _ _ _ _ _ _ _ _ _ _ _ _
 72
   65
 73
    2
 40
19.05
 49
12.7
 74
    0
 49
-6.35
 74
    0
  0
LTYPE
  5
37
330
5
100
AcDbSymbolTableRecord
100
AcDbLinetypeTableRecord
  2
DASHEDTINY
 70
    0
  3
Dashed (.15x) _ _ _ _ _ _ _ _ _ _ _ _ _ _ _ _ _
 72
   65
 73
    2
 40
2.8575
 49
1.905
 74
    0
 49
-0.9525
 74
    0
  0
LTYPE
  5
38
330
5
100
AcDbSymbolTableRecord
100
AcDbLinetypeTableRecord
  2
DASHED2
 70
    0
  3
Dashed (.5x) _ _ _ _ _ _ _ _ _ _ _ _ _ _ _ _ _
 72
   65
 73
    2
 40
9.524999999999999
 49
6.35
 74
    0
 49
-3.175
 74
    0
  0
LTYPE
  5
39
330
5
100
AcDbSymbolTableRecord
100
AcDbLinetypeTableRecord
  2
DASHEDX2
 70
    0
  3
Dashed (2x) ____  ____  ____  ____  ____  ___
 72
   65
 73
    2
 40
38.09999999999999
 49
25.4
 74
    0
 49
-12.7
 74
    0
  0
LTYPE
  5
3A
330
5
100
AcDbSymbolTableRecord
100
AcDbLinetypeTableRecord
  2
DASHDOT
 70
    0
  3
Dash dot __ . __ . __ . __ . __ . __ . __ . __
 72
   65
 73
    4
 40
25.4
 49
12.7
 74
    0
 49
-6.35
 74
    0
 49
0
 74
    0
 49
-6.35
 74
    0
  0
LTYPE
  5
3B
330
5
100
AcDbSymbolTableRecord
100
AcDbLinetypeTableRecord
  2
DASHDOTTINY
 70
    0
  3
Dash dot (.15x) _._._._._._._._._._._._._._._.
 72
   65
 73
    4
 40
3.81
 49
1.905
 74
    0
 49
-0.9525
 74
    0
 49
0
 74
    0
 49
-0.9525
 74
    0
  0
LTYPE
  5
3C
330
5
100
AcDbSymbolTableRecord
100
AcDbLinetypeTableRecord
  2
DASHDOT2
 70
    0
  3
Dash dot (.5x) _._._._._._._._._._._._._._._.
 72
   65
 73
    4
 40
12.7
 49
6.35
 74
    0
 49
-3.175
 74
    0
 49
0
 74
    0
 49
-3.175
 74
    0
  0
LTYPE
  5
3D
330
5
100
AcDbSymbolTableRecord
100
AcDbLinetypeTableRecord
  2
DASHDOTX2
 70
    0
  3
Dash dot (2x) ____  .  ____  .  ____  .  ___
 72
   65
 73
    4
 40
50.8
 49
25.4
 74
    0
 49
-12.7
 74
    0
 49
0
 74
    0
 49
-12.7
 74
    0
  0
LTYPE
  5
3E
330
5
100
AcDbSymbolTableRecord
100
AcDbLinetypeTableRecord
  2
DIVIDE
 70
    0
  3
Divide ____ . . ____ . . ____ . . ____ . . ____
 72
   65
 73
    6
 40
31.75
 49
12.7
 74
    0
 49
-6.35
 74
    0
 49
0
 74
    0
 49
-6.35
 74
    0
 49
0
 74
    0
 49
-6.35
 74
    0
  0
LTYPE
  5
3F
330
5
100
AcDbSymbolTableRecord
100
AcDbLinetypeTableRecord
  2
DIVIDETINY
 70
    0
  3
Divide (.15x) __..__..__..__..__..__..__..__.._
 72
   65
 73
    6
 40
4.7625
 49
1.905
 74
    0
 49
-0.9525
 74
    0
 49
0
 74
    0
 49
-0.9525
 74
    0
 49
0
 74
    0
 49
-0.9525
 74
    0
  0
LTYPE
  5
40
330
5
100
AcDbSymbolTableRecord
100
AcDbLinetypeTableRecord
  2
DIVIDE2
 70
    0
  3
Divide (.5x) __..__..__..__..__..__..__..__.._
 72
   65
 73
    6
 40
15.875
 49
6.35
 74
    0
 49
-3.175
 74
    0
 49
0
 74
    0
 49
-3.175
 74
    0
 49
0
 74
    0
 49
-3.175
 74
    0
  0
LTYPE
  5
41
330
5
100
AcDbSymbolTableRecord
100
AcDbLinetypeTableRecord
  2
DIVIDEX2
 70
    0
  3
Divide (2x) ________  .  .  ________  .  .  _
 72
   65
 73
    6
 40
63.5
 49
25.4
 74
    0
 49
-12.7
 74
    0
 49
0
 74
    0
 49
-12.7
 74
    0
 49
0
 74
    0
 49
-12.7
 74
    0
  0
LTYPE
  5
42
330
5
100
AcDbSymbolTableRecord
100
AcDbLinetypeTableRecord
  2
BORDER
 70
    0
  3
Border __ __ . __ __ . __ __ . __ __ . __ __ .
 72
   65
 73
    6
 40
44.45
 49
12.7
 74
    0
 49
-6.35
 74
    0
 49
12.7
 74
    0
 49
-6.35
 74
    0
 49
0
 74
    0
 49
-6.35
 74
    0
  0
LTYPE
  5
43
330
5
100
AcDbSymbolTableRecord
100
AcDbLinetypeTableRecord
  2
BORDERTINY
 70
    0
  3
Border (.15x) __.__.__.__.__.__.__.__.__.__.__.
 72
   65
 73
    6
 40
6.6675
 49
1.905
 74
    0
 49
-0.9525
 74
    0
 49
1.905
 74
    0
 49
-0.9525
 74
    0
 49
0
 74
    0
 49
-0.9525
 74
    0
  0
LTYPE
  5
44
330
5
100
AcDbSymbolTableRecord
100
AcDbLinetypeTableRecord
  2
BORDER2
 70
    0
  3
Border (.5x) __.__.__.__.__.__.__.__.__.__.__.
 72
   65
 73
    6
 40
22.225
 49
6.35
 74
    0
 49
-3.175
 74
    0
 49
6.35
 74
    0
 49
-3.175
 74
    0
 49
0
 74
    0
 49
-3.175
 74
    0
  0
LTYPE
  5
45
330
5
100
AcDbSymbolTableRecord
100
AcDbLinetypeTableRecord
  2
BORDERX2
 70
    0
  3
Border (2x) ____  ____  .  ____  ____  .  ___
 72
   65
 73
    6
 40
88.89999999999999
 49
25.4
 74
    0
 49
-12.7
 74
    0
 49
25.4
 74
    0
 49
-12.7
 74
    0
 49
0
 74
    0
 49
-12.7
 74
    0
  0
LTYPE
  5
46
330
5
100
AcDbSymbolTableRecord
100
AcDbLinetypeTableRecord
  2
CENTER
 70
    0
  3
Center ____ _ ____ _ ____ _ ____ _ ____ _ ____
 72
   65
 73
    4
 40
50.8
 49
31.75
 74
    0
 49
-6.35
 74
    0
 49
6.35
 74
    0
 49
-6.35
 74
    0
  0
LTYPE
  5
47
330
5
100
AcDbSymbolTableRecord
100
AcDbLinetypeTableRecord
  2
CENTERTINY
 70
    0
  3
Center (.15x) ___ _ ___ _ ___ _ ___ _ ___ _ ___
 72
   65
 73
    4
 40
7.619999999999999
 49
4.7625
 74
    0
 49
-0.9525
 74
    0
 49
0.9525
 74
    0
 49
-0.9525
 74
    0
  0
LTYPE
  5
48
330
5
100
AcDbSymbolTableRecord
100
AcDbLinetypeTableRecord
  2
CENTER2
 70
    0
  3
Center (.5x) ___ _ ___ _ ___ _ ___ _ ___ _ ___
 72
   65
 73
    4
 40
28.575
 49
19.05
 74
    0
 49
-3.175
 74
    0
 49
3.175
 74
    0
 49
-3.175
 74
    0
  0
LTYPE
  5
49
330
5
100
AcDbSymbolTableRecord
100
AcDbLinetypeTableRecord
  2
CENTERX2
 70
    0
  3
Center (2x) ________  __  ________  __  _____
 72
   65
 73
    4
 40
101.6
 49
63.5
 74
    0
 49
-12.7
 74
    0
 49
12.7
 74
    0
 49
-12.7
 74
    0
  0
ENDTAB
  0
TABLE
  2
LAYER
  5
2
330
0
100
AcDbSymbolTable
 70
    1
  0
LAYER
  5
10
330
2
100
AcDbSymbolTableRecord
100
AcDbLayerTableRecord
  2
0
 70
    0
 62
    7
  6
CONTINUOUS
370
    0
390
F
  0
LAYER
  5
4A
330
2
100
AcDbSymbolTableRecord
100
AcDbLayerTableRecord
  2
leg_1_R
 70
    0
 62
    1
  6
CONTINUOUS
370
   13
390
F
  0
LAYER
  5
4B
330
2
100
AcDbSymbolTableRecord
100
AcDbLayerTableRecord
  2
leg_2_V
 70
    0
 62
    3
  6
CONTINUOUS
370
   13
390
F
  0
LAYER
  5
4C
330
2
100
AcDbSymbolTableRecord
100
AcDbLayerTableRecord
  2
leg_3_B
 70
    0
 62
    5
  6
CONTINUOUS
370
   13
390
F
  0
LAYER
  5
4D
330
2
100
AcDbSymbolTableRecord
100
AcDbLayerTableRecord
  2
leg_4_M
 70
    0
 62
    6
  6
CONTINUOUS
370
   13
390
F
  0
LAYER
  5
4E
330
2
100
AcDbSymbolTableRecord
100
AcDbLayerTableRecord
  2
leg_5_C
 70
    0
 62
    4
  6
CONTINUOUS
370
   13
390
F
  0
LAYER
  5
4F
330
2
100
AcDbSymbolTableRecord
100
AcDbLayerTableRecord
  2
leg_6_G
 70
    0
 62
  253
420
10526884
  6
CONTINUOUS
370
   13
390
F
  0
LAYER
  5
50
330
2
100
AcDbSymbolTableRecord
100
AcDbLayerTableRecord
  2
points
 70
    0
 62
    7
  6
CONTINUOUS
370
   70
390
F
  0
LAYER
  5
51
330
2
100
AcDbSymbolTableRecord
100
AcDbLayerTableRecord
  2
repère
 70
    0
 62
   40
420
16755200
  6
CONTINUOUS
370
    0
390
F
  0
ENDTAB
  0
TABLE
  2
STYLE
  5
3
330
0
100
AcDbSymbolTable
 70
    3
  0
STYLE
  5
52
330
2
100
AcDbSymbolTableRecord
100
AcDbTextStyleTableRecord
  2
Standard
 70
    0
 40
0
 41
1
 50
0
 71
    0
 42
1
  3
txt
  4

  0
ENDTAB
  0
TABLE
  2
VIEW
  5
6
330
0
100
AcDbSymbolTable
 70
    0
  0
ENDTAB
  0
TABLE
  2
UCS
  5
7
330
0
100
AcDbSymbolTable
 70
    0
  0
ENDTAB
  0
TABLE
  2
APPID
  5
9
330
0
100
AcDbSymbolTable
 70
    1
  0
APPID
  5
12
330
9
100
AcDbSymbolTableRecord
100
AcDbRegAppTableRecord
  2
ACAD
 70
    0
  0
APPID
  5
53
330
9
100
AcDbSymbolTableRecord
100
AcDbRegAppTableRecord
  2
LibreCad
 70
    0
  0
ENDTAB
  0
TABLE
  2
DIMSTYLE
  5
A
330
0
100
AcDbSymbolTable
 70
    1
100
AcDbDimStyleTable
 71
    1
  0
DIMSTYLE
105
54
330
A
100
AcDbSymbolTableRecord
100
AcDbDimStyleTableRecord
  2
Standard
 70
    0
 40
1
 41
2.5
 42
0.625
 43
0.38
 44
1.25
 45
0
 46
0
 47
0
 48
0
 49
1
140
2.5
141
0.09
142
2.5
143
25.4
144
1
145
0
146
1
147
0.625
148
0
 71
    0
 72
    0
 73
    0
 74
    1
 75
    0
 76
    0
 77
    0
 78
    1
 79
    0
170
    0
171
    2
172
    0
173
    0
174
    0
175
    0
176
    0
177
    0
178
    0
179
    0
271
    2
272
    4
273
    2
274
    2
275
    0
276
    0
277
    2
278
    0
279
    0
280
    0
281
    0
282
    0
283
    1
284
    0
285
    0
286
    0
288
    0
289
    3
340
standard
341

371
   -2
372
   -2
  0
ENDTAB
  0
TABLE
  2
BLOCK_RECORD
  5
1
330
0
100
AcDbSymbolTable
 70
    2
  0
BLOCK_RECORD
  5
1F
330
1
100
AcDbSymbolTableRecord
100
AcDbBlockTableRecord
  2
*Model_Space
 70
    0
280
    1
281
    0
  0
BLOCK_RECORD
  5
1E
330
1
100
AcDbSymbolTableRecord
100
AcDbBlockTableRecord
  2
*Paper_Space
 70
    0
280
    1
281
    0
  0
ENDTAB
  0
ENDSEC
  0
SECTION
  2
BLOCKS
  0
BLOCK
  5
20
330
1F
100
AcDbEntity
  8
0
100
AcDbBlockBegin
  2
*Model_Space
 70
    0
 10
0
 20
0
 30
0
  3
*Model_Space
  1

  0
ENDBLK
  5
21
330
1F
100
AcDbEntity
  8
0
100
AcDbBlockEnd
  0
BLOCK
  5
1C
330
1B
100
AcDbEntity
  8
0
100
AcDbBlockBegin
  2
*Paper_Space
 70
    0
 10
0
 20
0
 30
0
  3
*Paper_Space
  1

  0
ENDBLK
  5
1D
330
1F
100
AcDbEntity
  8
0
100
AcDbBlockEnd
  0
ENDSEC
  0
SECTION
  2
ENTITIES
  0
LINE
  5
55
100
AcDbEntity
  8
repère
  6
ByLayer
 62
  256
370
   -1
100
AcDbLine
 10
0
 20
11
 11
0
 21
-11
  0
LINE
  5
56
100
AcDbEntity
  8
leg_3_B
  6
ByLayer
 62
  256
370
   -1
100
AcDbLine
 10
5.999999999997613
 20
10
 11
65.9999999999735
 21
-10
  0
LINE
  5
57
100
AcDbEntity
  8
leg_1_R
  6
ByLayer
 62
  256
370
   -1
100
AcDbLine
 10
41.9999999999832
 20
-10
 11
0
 21
4
  0
LINE
  5
58
100
AcDbEntity
  8
leg_2_V
  6
ByLayer
 62
  256
370
   -1
100
AcDbLine
 10
53.9999999999784
 20
-10
 11
0
 21
8
  0
LINE
  5
59
100
AcDbEntity
  8
leg_3_B
  6
DASHED2
 62
  256
370
   -1
100
AcDbLine
 10
0
 20
0
 11
5.999999999997613
 21
10
  0
LINE
  5
5A
100
AcDbEntity
  8
leg_6_G
  6
DASHED2
 62
  256
370
   -1
100
AcDbLine
 10
29.99999999998795
 20
-10
 11
41.9999999999832
 21
10
  0
LINE
  5
5B
100
AcDbEntity
  8
repère
  6
ByLayer
 62
  256
370
   -1
100
AcDbLine
 10
5.999999999997613
 20
11
 11
5.999999999997613
 21
-11
  0
LINE
  5
5C
100
AcDbEntity
  8
repère
  6
ByLayer
 62
  256
370
   -1
100
AcDbLine
 10
17.99999999999272
 20
11
 11
17.99999999999272
 21
-11
  0
LINE
  5
5D
100
AcDbEntity
  8
repère
  6
ByLayer
 62
  256
370
   -1
100
AcDbLine
 10
29.99999999998795
 20
11
 11
29.99999999998795
 21
-11
  0
LINE
  5
5E
100
AcDbEntity
  8
repère
  6
ByLayer
 62
  256
370
   -1
100
AcDbLine
 10
41.9999999999832
 20
11
 11
41.9999999999832
 21
-11
  0
LINE
  5
5F
100
AcDbEntity
  8
repère
  6
ByLayer
 62
  256
370
   -1
100
AcDbLine
 10
53.9999999999784
 20
11
 11
53.9999999999784
 21
-11
  0
LINE
  5
60
100
AcDbEntity
  8
repère
  6
ByLayer
 62
  256
370
   -1
100
AcDbLine
 10
65.9999999999735
 20
11
 11
65.9999999999735
 21
-11
  0
LINE
  5
61
100
AcDbEntity
  8
repère
  6
ByLayer
 62
  256
370
   -1
100
AcDbLine
 10
71.9999999999711
 20
11
 11
71.9999999999711
 21
-11
  0
LINE
  5
62
100
AcDbEntity
  8
repère
  6
ByLayer
 62
  256
370
   -1
100
AcDbLine
 10
47.9999999999808
 20
11
 11
47.9999999999808
 21
-11
  0
LINE
  5
63
100
AcDbEntity
  8
repère
  6
ByLayer
 62
  256
370
   -1
100
AcDbLine
 10
35.99999999998556
 20
-11
 11
35.99999999998556
 21
11
  0
LINE
  5
64
100
AcDbEntity
  8
repère
  6
ByLayer
 62
  256
370
   -1
100
AcDbLine
 10
23.99999999999034
 20
11
 11
23.99999999999034
 21
-11
  0
LINE
  5
65
100
AcDbEntity
  8
repère
  6
ByLayer
 62
  256
370
   -1
100
AcDbLine
 10
11.99999999999523
 20
-11
 11
11.99999999999523
 21
11
  0
LINE
  5
66
100
AcDbEntity
  8
leg_1_R
  6
ByLayer
 62
  256
370
   -1
100
AcDbLine
 10
0
 20
4
 11
-4.799999999999947
 21
4
  0
LINE
  5
67
100
AcDbEntity
  8
leg_2_V
  6
DASHED2
 62
  256
370
   -1
100
AcDbLine
 10
0
 20
8
 11
-4.799999999999947
 21
0
  0
LINE
  5
68
100
AcDbEntity
  8
leg_1_R
  6
DASHED2
 62
  256
370
   -1
100
AcDbLine
 10
-4.799999999999947
 20
4
 11
-7.199999999999932
 21
0
  0
LINE
  5
69
100
AcDbEntity
  8
leg_4_M
  6
DASHED2
 62
  256
370
   -1
100
AcDbLine
 10
17.99999999999272
 20
10
 11
9.999999999996021
 21
-3.333333333333329
  0
LINE
  5
6A
100
AcDbEntity
  8
leg_5_C
  6
DASHED2
 62
  256
370
   -1
100
AcDbLine
 10
19.99999999999193
 20
-6.666666666666657
 11
29.99999999998795
 21
10
  0
ELLIPSE
  5
6B
100
AcDbEntity
  8
0
  6
ByLayer
 62
  256
370
   -1
100
AcDbEllipse
 10
0
 20
-10
 30
0
 11
0
 21
0
 31
0
 40
1
 41
0
 42
6.283185307179586
  0
LINE
  5
6C
100
AcDbEntity
  8
repère
  6
ByLayer
 62
  256
370
   -1
100
AcDbLine
 10
59.9999999999999
 20
-11
 11
59.9999999999759
 21
11
  0
LINE
  5
6D
100
AcDbEntity
  8
leg_6_G
  6
ByLayer
 62
  256
370
   -1
100
AcDbLine
 10
19.99999999999193
 20
-6.666666666666671
 11
29.99999999998795
 21
-10
  0
LINE
  5
6E
100
AcDbEntity
  8
leg_5_C
  6
ByLayer
 62
  256
370
   -1
100
AcDbLine
 10
9.999999999996021
 20
-3.333333333333329
 11
19.99999999999193
 21
-6.666666666666671
  0
LINE
  5
6F
100
AcDbEntity
  8
leg_4_M
  6
ByLayer
 62
  256
370
   -1
100
AcDbLine
 10
0
 20
0
 11
9.999999999996021
 21
-3.333333333333343
  0
POINT
  5
70
100
AcDbEntity
  8
points
  6
ByLayer
 62
  256
370
   -1
100
AcDbPoint
 10
9.999999999996021
 20
-3.333333333333343
  0
POINT
  5
71
100
AcDbEntity
  8
points
  6
ByLayer
 62
  256
370
   -1
100
AcDbPoint
 10
19.99999999999193
 20
-6.666666666666671
  0
POINT
  5
72
100
AcDbEntity
  8
points
  6
ByLayer
 62
  256
370
   -1
100
AcDbPoint
 10
-4.799999999999947
 20
4
  0
POINT
  5
73
100
AcDbEntity
  8
points
  6
ByLayer
 62
  256
370
   -1
100
AcDbPoint
 10
-7.199999999999932
 20
0
  0
POINT
  5
74
100
AcDbEntity
  8
points
  6
ByLayer
 62
  256
370
   -1
100
AcDbPoint
 10
-4.799999999999947
 20
0
  0
POINT
  5
75
100
AcDbEntity
  8
points
  6
ByLayer
 62
  256
370
   -1
100
AcDbPoint
 10
0
 20
4
  0
POINT
  5
76
100
AcDbEntity
  8
points
  6
ByLayer
 62
  256
370
   -1
100
AcDbPoint
 10
0
 20
8
  0
LINE
  5
77
100
AcDbEntity
  8
leg_4_M
  6
ByLayer
 62
  256
370
   -1
100
AcDbLine
 10
17.99999999999272
 20
10
 11
77.99999999999987
 21
-10
  0
LINE
  5
78
100
AcDbEntity
  8
leg_5_C
  6
ByLayer
 62
  256
370
   -1
100
AcDbLine
 10
29.99999999998795
 20
10
 11
90.000000000005
 21
-10
  0
LINE
  5
79
100
AcDbEntity
  8
leg_1_R
  6
DASHED2
 62
  256
370
   -1
100
AcDbLine
 10
41.9999999999832
 20
-10
 11
53.99999999997824
 21
10
  0
LINE
  5
7A
100
AcDbEntity
  8
leg_2_V
  6
DASHED2
 62
  256
370
   -1
100
AcDbLine
 10
53.9999999999784
 20
-10
 11
65.9999999999735
 21
10
  0
LINE
  5
7B
100
AcDbEntity
  8
leg_3_B
  6
DASHED2
 62
  256
370
   -1
100
AcDbLine
 10
65.9999999999735
 20
-10
 11
77.99999999999989
 21
10
  0
LINE
  5
7C
100
AcDbEntity
  8
leg_4_M
  6
DASHED2
 62
  256
370
   -1
100
AcDbLine
 10
77.99999999999987
 20
-10
 11
90.00000000008619
 21
10
  0
LINE
  5
7D
100
AcDbEntity
  8
leg_4_M
  6
ByLayer
 62
  256
370
   -1
100
AcDbLine
 10
90.00000000008619
 20
10
 11
150.0000000001033
 21
-10
  0
LINE
  5
7E
100
AcDbEntity
  8
leg_3_B
  6
ByLayer
 62
  256
370
   -1
100
AcDbLine
 10
77.99999999999987
 20
10
 11
138.0000000000169
 21
-10
  0
LINE
  5
7F
100
AcDbEntity
  8
leg_2_V
  6
ByLayer
 62
  256
370
   -1
100
AcDbLine
 10
65.99999999997348
 20
10
 11
125.9999999999905
 21
-10
  0
LINE
  5
80
100
AcDbEntity
  8
leg_1_R
  6
ByLayer
 62
  256
370
   -1
100
AcDbLine
 10
53.9999999999784
 20
10
 11
113.9999999999955
 21
-10
  0
LINE
  5
81
100
AcDbEntity
  8
leg_6_G
  6
ByLayer
 62
  256
370
   -1
100
AcDbLine
 10
41.99999999998319
 20
10
 11
102.0000000000003
 21
-10
  0
LINE
  5
82
100
AcDbEntity
  8
repère
  6
ByLayer
 62
  256
370
   -1
100
AcDbLine
 10
113.9999999999955
 20
11.00000000000001
 11
113.9999999999955
 21
-10.99999999999999
  0
LINE
  5
83
100
AcDbEntity
  8
repère
  6
ByLayer
 62
  256
370
   -1
100
AcDbLine
 10
125.9999999999906
 20
11.00000000000001
 11
125.9999999999906
 21
-10.99999999999999
  0
LINE
  5
84
100
AcDbEntity
  8
repère
  6
ByLayer
 62
  256
370
   -1
100
AcDbLine
 10
137.9999999999857
 20
11.00000000000001
 11
137.9999999999857
 21
-10.99999999999999
  0
LINE
  5
85
100
AcDbEntity
  8
repère
  6
ByLayer
 62
  256
370
   -1
100
AcDbLine
 10
143.9999999999833
 20
11.00000000000001
 11
143.9999999999833
 21
-10.99999999999999
  0
LINE
  5
86
100
AcDbEntity
  8
repère
  6
ByLayer
 62
  256
370
   -1
100
AcDbLine
 10
119.9999999999931
 20
11.00000000000001
 11
119.9999999999931
 21
-10.99999999999999
  0
LINE
  5
87
100
AcDbEntity
  8
repère
  6
ByLayer
 62
  256
370
   -1
100
AcDbLine
 10
132.0000000000122
 20
-10.99999999999999
 11
131.9999999999881
 21
11.00000000000001
  0
LINE
  5
88
100
AcDbEntity
  8
leg_1_R
  6
DASHED2
 62
  256
370
   -1
100
AcDbLine
 10
113.9999999999955
 20
-9.999999999999993
 11
125.9999999999905
 21
10.00000000000001
  0
LINE
  5
89
100
AcDbEntity
  8
leg_2_V
  6
DASHED2
 62
  256
370
   -1
100
AcDbLine
 10
125.9999999999906
 20
-9.999999999999993
 11
137.9999999999857
 21
10.00000000000001
  0
LINE
  5
8A
100
AcDbEntity
  8
leg_3_B
  6
DASHED2
 62
  256
370
   -1
100
AcDbLine
 10
137.9999999999857
 20
-9.999999999999993
 11
150.0000000000121
 21
10.00000000000001
  0
LINE
  5
8B
100
AcDbEntity
  8
leg_4_M
  6
DASHED2
 62
  256
370
   -1
100
AcDbLine
 10
150.0000000000121
 20
-9.999999999999993
 11
162.0000000000985
 21
10.00000000000001
  0
LINE
  5
8C
100
AcDbEntity
  8
leg_3_B
  6
ByLayer
 62
  256
370
   -1
100
AcDbLine
 10
150.0000000000121
 20
10.00000000000001
 11
210.0000000000292
 21
-9.999999999999993
  0
LINE
  5
8D
100
AcDbEntity
  8
leg_2_V
  6
ByLayer
 62
  256
370
   -1
100
AcDbLine
 10
137.9999999999857
 20
10.00000000000001
 11
198.0000000000028
 21
-9.999999999999993
  0
LINE
  5
8E
100
AcDbEntity
  8
leg_1_R
  6
ByLayer
 62
  256
370
   -1
100
AcDbLine
 10
125.9999999999906
 20
10.00000000000001
 11
186.0000000000077
 21
-9.999999999999993
  0
LINE
  5
8F
100
AcDbEntity
  8
leg_6_G
  6
ByLayer
 62
  256
370
   -1
100
AcDbLine
 10
113.9999999999954
 20
10.00000000000001
 11
174.0000000000125
 21
-9.999999999999993
  0
LINE
  5
90
100
AcDbEntity
  8
leg_5_C
  6
DASHED2
 62
  256
370
   -1
100
AcDbLine
 10
90.00000000000502
 20
-10
 11
102.0000000000913
 21
10
  0
LINE
  5
91
100
AcDbEntity
  8
leg_6_G
  6
DASHED2
 62
  256
370
   -1
100
AcDbLine
 10
102.0000000000002
 20
-10
 11
114.0000000000866
 21
10
  0
LINE
  5
92
100
AcDbEntity
  8
repère
  6
ByLayer
 62
  256
370
   -1
100
AcDbLine
 10
77.99999999999989
 20
11
 11
77.99999999999989
 21
-11
  0
LINE
  5
93
100
AcDbEntity
  8
repère
  6
ByLayer
 62
  256
370
   -1
100
AcDbLine
 10
89.99999999999508
 20
11
 11
89.99999999999508
 21
-11
  0
LINE
  5
94
100
AcDbEntity
  8
repère
  6
ByLayer
 62
  256
370
   -1
100
AcDbLine
 10
101.9999999999902
 20
11
 11
101.9999999999902
 21
-11
  0
LINE
  5
95
100
AcDbEntity
  8
repère
  6
ByLayer
 62
  256
370
   -1
100
AcDbLine
 10
107.9999999999878
 20
11
 11
107.9999999999878
 21
-11
  0
LINE
  5
96
100
AcDbEntity
  8
repère
  6
ByLayer
 62
  256
370
   -1
100
AcDbLine
 10
83.99999999999748
 20
11
 11
83.99999999999748
 21
-11
  0
LINE
  5
97
100
AcDbEntity
  8
repère
  6
ByLayer
 62
  256
370
   -1
100
AcDbLine
 10
96.00000000001658
 20
-11
 11
95.99999999999258
 21
11
  0
LINE
  5
98
100
AcDbEntity
  8
repère
  6
ByLayer
 62
  256
370
   -1
100
AcDbLine
 10
186.0000000000077
 20
11
 11
186.0000000000077
 21
-11
  0
LINE
  5
99
100
AcDbEntity
  8
repère
  6
ByLayer
 62
  256
370
   -1
100
AcDbLine
 10
198.0000000000029
 20
11
 11
198.0000000000029
 21
-11
  0
LINE
  5
9A
100
AcDbEntity
  8
repère
  6
ByLayer
 62
  256
370
   -1
100
AcDbLine
 10
209.999999999998
 20
11
 11
209.999999999998
 21
-11
  0
LINE
  5
9B
100
AcDbEntity
  8
repère
  6
ByLayer
 62
  256
370
   -1
100
AcDbLine
 10
215.9999999999957
 20
11
 11
215.9999999999957
 21
-11
  0
LINE
  5
9C
100
AcDbEntity
  8
repère
  6
ByLayer
 62
  256
370
   -1
100
AcDbLine
 10
192.0000000000053
 20
11
 11
192.0000000000053
 21
-11
  0
LINE
  5
9D
100
AcDbEntity
  8
repère
  6
ByLayer
 62
  256
370
   -1
100
AcDbLine
 10
204.0000000000244
 20
-11
 11
204.0000000000004
 21
11
  0
LINE
  5
9E
100
AcDbEntity
  8
leg_3_B
  6
DASHED2
 62
  256
370
   -1
100
AcDbLine
 10
209.999999999998
 20
-10
 11
215.9999999999957
 21
-2.599165327410446e-11
  0
LINE
  5
9F
100
AcDbEntity
  8
leg_1_R
  6
DASHED2
 62
  256
370
   -1
100
AcDbLine
 10
186.0000000000077
 20
-10
 11
196.0000000000047
 21
6.666666666668561
  0
LINE
  5
A0
100
AcDbEntity
  8
leg_2_V
  6
DASHED2
 62
  256
370
   -1
100
AcDbLine
 10
198.0000000000029
 20
-10
 11
206.0000000000019
 21
3.333333333337109
  0
LINE
  5
A1
100
AcDbEntity
  8
leg_6_G
  6
ByLayer
 62
  256
370
   -1
100
AcDbLine
 10
186.0000000000077
 20
10
 11
196.0000000000047
 21
6.666666666668561
  0
LINE
  5
A2
100
AcDbEntity
  8
leg_1_R
  6
ByLayer
 62
  256
370
   -1
100
AcDbLine
 10
196.0000000000047
 20
6.666666666668561
 11
206.0000000000019
 21
3.333333333337109
  0
LINE
  5
A3
100
AcDbEntity
  8
leg_2_V
  6
ByLayer
 62
  256
370
   -1
100
AcDbLine
 10
206.0000000000019
 20
3.333333333337109
 11
216.0000000000244
 21
0
  0
LINE
  5
A4
100
AcDbEntity
  8
leg_5_C
  6
ByLayer
 62
  256
370
   -1
100
AcDbLine
 10
216.0000000000244
 20
-4
 11
220.8000000000245
 21
-4
  0
POINT
  5
A5
100
AcDbEntity
  8
points
  6
ByLayer
 62
  256
370
   -1
100
AcDbPoint
 10
196.0000000000047
 20
6.666666666668561
  0
POINT
  5
A6
100
AcDbEntity
  8
points
  6
ByLayer
 62
  256
370
   -1
100
AcDbPoint
 10
206.0000000000019
 20
3.333333333337109
  0
POINT
  5
A7
100
AcDbEntity
  8
points
  6
ByLayer
 62
  256
370
   -1
100
AcDbPoint
 10
223.2000000000245
 20
0
  0
POINT
  5
A8
100
AcDbEntity
  8
points
  6
ByLayer
 62
  256
370
   -1
100
AcDbPoint
 10
220.8000000000245
 20
-4
  0
POINT
  5
A9
100
AcDbEntity
  8
points
  6
ByLayer
 62
  256
370
   -1
100
AcDbPoint
 10
220.8000000000245
 20
0
  0
POINT
  5
AA
100
AcDbEntity
  8
points
  6
ByLayer
 62
  256
370
   -1
100
AcDbPoint
 10
216.0000000000244
 20
-4
  0
POINT
  5
AB
100
AcDbEntity
  8
points
  6
ByLayer
 62
  256
370
   -1
100
AcDbPoint
 10
215.9999999999957
 20
-7.999999999990649
  0
LINE
  5
AC
100
AcDbEntity
  8
leg_4_M
  6
DASHED2
 62
  256
370
   -1
100
AcDbLine
 10
215.9999999999957
 20
-7.999999999990649
 11
220.8000000000245
 21
0
  0
LINE
  5
AD
100
AcDbEntity
  8
leg_5_C
  6
DASHED2
 62
  256
370
   -1
100
AcDbLine
 10
220.8000000000245
 20
-4
 11
223.2000000000245
 21
0
  0
LINE
  5
AE
100
AcDbEntity
  8
leg_5_C
  6
ByLayer
 62
  256
370
   -1
100
AcDbLine
 10
101.9999999994844
 20
10
 11
161.9999999995015
 21
-10
  0
LINE
  5
AF
100
AcDbEntity
  8
leg_5_C
  6
DASHED2
 62
  256
370
   -1
100
AcDbLine
 10
161.9999999995015
 20
-10
 11
173.9999999995878
 21
10
  0
LINE
  5
B0
100
AcDbEntity
  8
leg_6_G
  6
DASHED2
 62
  256
370
   -1
100
AcDbLine
 10
174.0000000000126
 20
-10
 11
186.0000000000989
 21
10
  0
LINE
  5
B1
100
AcDbEntity
  8
repère
  6
ByLayer
 62
  256
370
   -1
100
AcDbLine
 10
150.0000000000121
 20
11.00000000015197
 11
150.0000000000121
 21
-10.99999999984803
  0
LINE
  5
B2
100
AcDbEntity
  8
repère
  6
ByLayer
 62
  256
370
   -1
100
AcDbLine
 10
162.0000000000073
 20
11.00000000015197
 11
162.0000000000073
 21
-10.99999999984803
  0
LINE
  5
B3
100
AcDbEntity
  8
repère
  6
ByLayer
 62
  256
370
   -1
100
AcDbLine
 10
174.0000000000024
 20
11.00000000015197
 11
174.0000000000024
 21
-10.99999999984803
  0
LINE
  5
B4
100
AcDbEntity
  8
repère
  6
ByLayer
 62
  256
370
   -1
100
AcDbLine
 10
180.0000000000001
 20
11.00000000015197
 11
180.0000000000001
 21
-10.99999999984803
  0
LINE
  5
B5
100
AcDbEntity
  8
repère
  6
ByLayer
 62
  256
370
   -1
100
AcDbLine
 10
156.0000000000097
 20
11.00000000015197
 11
156.0000000000097
 21
-10.99999999984803
  0
LINE
  5
B6
100
AcDbEntity
  8
repère
  6
ByLayer
 62
  256
370
   -1
100
AcDbLine
 10
168.0000000000288
 20
-10.99999999984803
 11
168.0000000000048
 21
11.00000000015197
  0
LINE
  5
B7
100
AcDbEntity
  8
repère
  6
CONTINUOUS
 62
  256
370
   -1
100
AcDbLine
 10
222.0000000001155
 20
-10
 11
-2
 21
-10
  0
LINE
  5
B8
100
AcDbEntity
  8
repère
  6
CONTINUOUS
 62
  256
370
   -1
100
AcDbLine
 10
-2
 20
10
 11
220
 21
10
  0
LINE
  5
B9
100
AcDbEntity
  8
repère
  6
CONTINUOUS
 62
  256
370
   -1
100
AcDbLine
 10
-10
 20
0
 11
230
 21
0
  0
LINE
  5
BA
100
AcDbEntity
  8
leg_4_M
  6
ByLayer
 62
  256
370
   -1
100
AcDbLine
 10
162.0000000000985
 20
10.00000000000001
 11
215.9999999999957
 21
-7.999999999960616
  0
LINE
  5
BB
100
AcDbEntity
  8
leg_5_C
  6
ByLayer
 62
  256
370
   -1
100
AcDbLine
 10
174.0000000000024
 20
10
 11
215.9999999999957
 21
-4
  0
LINE
  5
BC
100
AcDbEntity
  8
0
  6
ByLayer
 62
  256
370
   -1
100
AcDbLine
 10
20
 20
-13
 11
20
 21
-20
  0
LINE
  5
BD
100
AcDbEntity
  8
0
  6
ByLayer
 62
  256
370
   -1
100
AcDbLine
 10
-7.199999999999932
 20
-13
 11
-7.199999999999932
 21
-20
  0
LINE
  5
BE
100
AcDbEntity
  8
0
  6
ByLayer
 62
  256
370
   -1
100
AcDbLine
 10
196
 20
-13
 11
196
 21
-20
  0
LINE
  5
BF
100
AcDbEntity
  8
0
  6
ByLayer
 62
  256
370
   -1
100
AcDbLine
 10
72
 20
-13
 11
72
 21
-20
  0
LINE
  5
C0
100
AcDbEntity
  8
0
  6
ByLayer
 62
  256
370
   -1
100
AcDbLine
 10
144
 20
-13
 11
144
 21
-20
  0
TEXT
  5
C1
100
AcDbEntity
  8
0
  6
ByLayer
 62
  256
370
   -1
100
AcDbText
 10
30
 20
-20
 30
0
 40
3
  1
Step 1 (partial)
 50
0
 41
1
 51
0
  7

 71
    0
210
0
220
0
230
1
100
AcDbText
  0
LINE
  5
C2
100
AcDbEntity
  8
0
  6
ByLayer
 62
  256
370
   -1
100
AcDbLine
 10
223.2000000000245
 20
-13
 11
223.2000000000245
 21
-20
  0
TEXT
  5
C3
100
AcDbEntity
  8
0
  6
ByLayer
 62
  256
370
   -1
100
AcDbText
 10
206
 20
-20
 30
0
 40
3
  1
Stop
 50
0
 41
1
 51
0
  7

 71
    0
210
0
220
0
230
1
100
AcDbText
  0
TEXT
  5
C4
100
AcDbEntity
  8
0
  6
ByLayer
 62
  256
370
   -1
100
AcDbText
 10
154
 20
-20
 30
0
 40
3
  1
Step 3 (partial)
 50
0
 41
1
 51
0
  7

 71
    0
210
0
220
0
230
1
100
AcDbText
  0
TEXT
  5
C5
100
AcDbEntity
  8
0
  6
ByLayer
 62
  256
370
   -1
100
AcDbText
 10
95
 20
-20
 30
0
 40
3
  1
Step 2 (full)
 50
0
 41
1
 51
0
  7

 71
    0
210
0
220
0
230
1
100
AcDbText
  0
TEXT
  5
C6
100
AcDbEntity
  8
0
  6
ByLayer
 62
  256
370
   -1
100
AcDbText
 10
2
 20
-20
 30
0
 40
3
  1
Start
 50
0
 41
1
 51
0
  7

 71
    0
210
0
220
0
230
1
100
AcDbText
  0
ENDSEC
  0
SECTION
  2
OBJECTS
  0
DICTIONARY
  5
C
330
0
100
AcDbDictionary
281
    1
  3
ACAD_GROUP
350
D
  0
DICTIONARY
  5
D
330
C
100
AcDbDictionary
281
    1
  0
ENDSEC
  0
EOF
